{
  "password": "chimdindu",
  "token":"8df21981ad8f15bc4d52dca24244080d",
  "authur":"ofobrukweta_oghenerukevwe",
  "to":"delivery_science",
  "sid":"AC375a6f956d68ca4266fff024cf0d03dc",
  "mymobileno":"09096958396"
}
